start 294362710 1 te17129134510.hld 2017-05-09 13:45:10
stop 294362710 1 te17129134510.hld 2017-05-09 13:46:23    0    32 
start 294362878 1 te17129134758.hld 2017-05-09 13:47:58
stop 294362878 1 te17129134758.hld 2017-05-09 13:50:43    0    32 
start 294364791 1 te17129141951.hld 2017-05-09 14:19:51
stop 294364791 1 te17129141951.hld 2017-05-09 14:20:08    0    32 
start 294364886 1 te17129142126.hld 2017-05-09 14:21:26
stop 294364886 1 te17129142126.hld 2017-05-09 14:21:33    0    32 
start 294364971 1 te17129142251.hld 2017-05-09 14:22:51
stop 294364971 1 te17129142251.hld 2017-05-09 14:23:00    0    32 
start 294369987 1 te17129154627.hld 2017-05-09 15:46:27
stop 294369987 1 te17129154627.hld 2017-05-09 15:46:32    0    32 
start 294370016 1 xx17129154656.hld 2017-05-09 15:46:56
stop 294370016 1 xx17129154656.hld 2017-05-09 15:47:04    0    32 
